(module IDC-Header_2x12_P2.54mm_Vertical_SMD (layer F.Cu) (tedit 6014190F)
  (descr "Surface mounted IDC box header, 2x12, 2.54mm pitch, double rows (")
  (tags "Surface mounted vertical IDC box header SMD 2x12 2.54mm double row")
  (fp_text reference REF** (at 1.27 -6.1) (layer F.SilkS)
    (effects (font (size 1 1) (thickness 0.15)))
  )
  (fp_text value IDC-Header_2x12_P2.54mm_Vertical_SMD (at 1.27 33.94) (layer F.Fab)
    (effects (font (size 1 1) (thickness 0.15)))
  )
  (fp_line (start -3 -4) (end -2 -5) (layer F.Fab) (width 0.1))
  (fp_line (start -2 -5) (end 5.54 -5) (layer F.Fab) (width 0.1))
  (fp_line (start 5.54 -5) (end 5.54 32.94) (layer F.Fab) (width 0.1))
  (fp_line (start 5.54 32.94) (end -3 32.94) (layer F.Fab) (width 0.1))
  (fp_line (start -3 32.94) (end -3 -4) (layer F.Fab) (width 0.1))
  (fp_line (start -3 11.92) (end -2 11.92) (layer F.Fab) (width 0.1))
  (fp_line (start -2 11.92) (end -2 -4) (layer F.Fab) (width 0.1))
  (fp_line (start -2 -4) (end 4.54 -4) (layer F.Fab) (width 0.1))
  (fp_line (start 4.54 -4) (end 4.54 31.94) (layer F.Fab) (width 0.1))
  (fp_line (start 4.54 31.94) (end -2 31.94) (layer F.Fab) (width 0.1))
  (fp_line (start -2 31.94) (end -2 16.02) (layer F.Fab) (width 0.1))
  (fp_line (start -2 16.02) (end -3 16.02) (layer F.Fab) (width 0.1))
  (fp_line (start -5.03 -0.758) (end -3.1 -0.758) (layer F.SilkS) (width 0.12))
  (fp_line (start -3.1 -0.758) (end -3.1 -5.1) (layer F.SilkS) (width 0.12))
  (fp_line (start -3.1 -5.1) (end 5.64 -5.1) (layer F.SilkS) (width 0.12))
  (fp_line (start 5.64 -5.1) (end 5.64 -0.758) (layer F.SilkS) (width 0.12))
  (fp_line (start -3.1 28.698) (end -3.1 33.04) (layer F.SilkS) (width 0.12))
  (fp_line (start -3.1 33.04) (end 5.64 33.04) (layer F.SilkS) (width 0.12))
  (fp_line (start 5.64 33.04) (end 5.64 28.698) (layer F.SilkS) (width 0.12))
  (fp_line (start -5.53 -5.5) (end -5.53 33.44) (layer F.CrtYd) (width 0.05))
  (fp_line (start -5.53 33.44) (end 8.07 33.44) (layer F.CrtYd) (width 0.05))
  (fp_line (start 8.07 33.44) (end 8.07 -5.5) (layer F.CrtYd) (width 0.05))
  (fp_line (start 8.07 -5.5) (end -5.53 -5.5) (layer F.CrtYd) (width 0.05))
  (pad 1 smd rect (at -2.49 0) (size 5.08 1.016) (layers F.Cu F.Mask F.Paste))
  (pad 3 smd rect (at -2.49 2.54) (size 5.08 1.016) (layers F.Cu F.Mask F.Paste))
  (pad 5 smd rect (at -2.49 5.08) (size 5.08 1.016) (layers F.Cu F.Mask F.Paste))
  (pad 7 smd rect (at -2.49 7.62) (size 5.08 1.016) (layers F.Cu F.Mask F.Paste))
  (pad 9 smd rect (at -2.49 10.16) (size 5.08 1.016) (layers F.Cu F.Mask F.Paste))
  (pad 11 smd rect (at -2.49 12.7) (size 5.08 1.016) (layers F.Cu F.Mask F.Paste))
  (pad 13 smd rect (at -2.49 15.24) (size 5.08 1.016) (layers F.Cu F.Mask F.Paste))
  (pad 15 smd rect (at -2.49 17.78) (size 5.08 1.016) (layers F.Cu F.Mask F.Paste))
  (pad 17 smd rect (at -2.49 20.32) (size 5.08 1.016) (layers F.Cu F.Mask F.Paste))
  (pad 19 smd rect (at -2.49 22.86) (size 5.08 1.016) (layers F.Cu F.Mask F.Paste))
  (pad 21 smd rect (at -2.49 25.4) (size 5.08 1.016) (layers F.Cu F.Mask F.Paste))
  (pad 23 smd rect (at -2.49 27.94) (size 5.08 1.016) (layers F.Cu F.Mask F.Paste))
  (pad 2 smd rect (at 5.03 0) (size 5.08 1.016) (layers F.Cu F.Mask F.Paste))
  (pad 4 smd rect (at 5.03 2.54) (size 5.08 1.016) (layers F.Cu F.Mask F.Paste))
  (pad 6 smd rect (at 5.03 5.08) (size 5.08 1.016) (layers F.Cu F.Mask F.Paste))
  (pad 8 smd rect (at 5.03 7.62) (size 5.08 1.016) (layers F.Cu F.Mask F.Paste))
  (pad 10 smd rect (at 5.03 10.16) (size 5.08 1.016) (layers F.Cu F.Mask F.Paste))
  (pad 12 smd rect (at 5.03 12.7) (size 5.08 1.016) (layers F.Cu F.Mask F.Paste))
  (pad 14 smd rect (at 5.03 15.24) (size 5.08 1.016) (layers F.Cu F.Mask F.Paste))
  (pad 16 smd rect (at 5.03 17.78) (size 5.08 1.016) (layers F.Cu F.Mask F.Paste))
  (pad 18 smd rect (at 5.03 20.32) (size 5.08 1.016) (layers F.Cu F.Mask F.Paste))
  (pad 20 smd rect (at 5.03 22.86) (size 5.08 1.016) (layers F.Cu F.Mask F.Paste))
  (pad 22 smd rect (at 5.03 25.4) (size 5.08 1.016) (layers F.Cu F.Mask F.Paste))
  (pad 24 smd rect (at 5.03 27.94) (size 5.08 1.016) (layers F.Cu F.Mask F.Paste))
  (fp_text user %R (at 1.27 13.97 90) (layer F.Fab)
    (effects (font (size 1 1) (thickness 0.15)))
  )
  (model ${KICAD6_3DMODEL_DIR}/Connector_IDC.3dshapes/IDC-Header_2x12_P2.54mm_Vertical_SMD.wrl
    (at (xyz 0 0 0))
    (scale (xyz 1 1 1))
    (rotate (xyz 0 0 0))
  )
)