(module IDC-Header_2x10_P1.27mm_Vertical_SMD (layer F.Cu) (tedit 6014190F)
  (descr "Surface mounted IDC box header, 2x10, 1.27mm pitch, double rows (")
  (tags "Surface mounted vertical IDC box header SMD 2x10 1.27mm double row")
  (fp_text reference REF** (at 1.27 -6.1) (layer F.SilkS)
    (effects (font (size 1 1) (thickness 0.15)))
  )
  (fp_text value IDC-Header_2x10_P1.27mm_Vertical_SMD (at 1.27 16.13) (layer F.Fab)
    (effects (font (size 1 1) (thickness 0.15)))
  )
  (fp_line (start -1.72 -2.7) (end -0.72 -3.7) (layer F.Fab) (width 0.1))
  (fp_line (start -0.72 -3.7) (end 2.99 -3.7) (layer F.Fab) (width 0.1))
  (fp_line (start 2.99 -3.7) (end 2.99 15.13) (layer F.Fab) (width 0.1))
  (fp_line (start 2.99 15.13) (end -1.72 15.13) (layer F.Fab) (width 0.1))
  (fp_line (start -1.72 15.13) (end -1.72 -2.7) (layer F.Fab) (width 0.1))
  (fp_line (start -1.72 3.665) (end -0.72 3.665) (layer F.Fab) (width 0.1))
  (fp_line (start -0.72 3.665) (end -0.72 -2.7) (layer F.Fab) (width 0.1))
  (fp_line (start -0.72 -2.7) (end 1.99 -2.7) (layer F.Fab) (width 0.1))
  (fp_line (start 1.99 -2.7) (end 1.99 14.13) (layer F.Fab) (width 0.1))
  (fp_line (start 1.99 14.13) (end -0.72 14.13) (layer F.Fab) (width 0.1))
  (fp_line (start -0.72 14.13) (end -0.72 7.765) (layer F.Fab) (width 0.1))
  (fp_line (start -0.72 7.765) (end -1.72 7.765) (layer F.Fab) (width 0.1))
  (fp_line (start -2.49 -0.504) (end -1.82 -0.504) (layer F.SilkS) (width 0.12))
  (fp_line (start -1.82 -0.504) (end -1.82 -3.8) (layer F.SilkS) (width 0.12))
  (fp_line (start -1.82 -3.8) (end 3.09 -3.8) (layer F.SilkS) (width 0.12))
  (fp_line (start 3.09 -3.8) (end 3.09 -0.504) (layer F.SilkS) (width 0.12))
  (fp_line (start -1.82 11.934) (end -1.82 15.23) (layer F.SilkS) (width 0.12))
  (fp_line (start -1.82 15.23) (end 3.09 15.23) (layer F.SilkS) (width 0.12))
  (fp_line (start 3.09 15.23) (end 3.09 11.934) (layer F.SilkS) (width 0.12))
  (fp_line (start -2.99 -4.2) (end -2.99 15.63) (layer F.CrtYd) (width 0.05))
  (fp_line (start -2.99 15.63) (end 4.26 15.63) (layer F.CrtYd) (width 0.05))
  (fp_line (start 4.26 15.63) (end 4.26 -4.2) (layer F.CrtYd) (width 0.05))
  (fp_line (start 4.26 -4.2) (end -2.99 -4.2) (layer F.CrtYd) (width 0.05))
  (pad 1 smd rect (at -1.22 0) (size 2.54 0.508) (layers F.Cu F.Mask F.Paste))
  (pad 3 smd rect (at -1.22 1.27) (size 2.54 0.508) (layers F.Cu F.Mask F.Paste))
  (pad 5 smd rect (at -1.22 2.54) (size 2.54 0.508) (layers F.Cu F.Mask F.Paste))
  (pad 7 smd rect (at -1.22 3.81) (size 2.54 0.508) (layers F.Cu F.Mask F.Paste))
  (pad 9 smd rect (at -1.22 5.08) (size 2.54 0.508) (layers F.Cu F.Mask F.Paste))
  (pad 11 smd rect (at -1.22 6.35) (size 2.54 0.508) (layers F.Cu F.Mask F.Paste))
  (pad 13 smd rect (at -1.22 7.62) (size 2.54 0.508) (layers F.Cu F.Mask F.Paste))
  (pad 15 smd rect (at -1.22 8.89) (size 2.54 0.508) (layers F.Cu F.Mask F.Paste))
  (pad 17 smd rect (at -1.22 10.16) (size 2.54 0.508) (layers F.Cu F.Mask F.Paste))
  (pad 19 smd rect (at -1.22 11.43) (size 2.54 0.508) (layers F.Cu F.Mask F.Paste))
  (pad 2 smd rect (at 2.49 0) (size 2.54 0.508) (layers F.Cu F.Mask F.Paste))
  (pad 4 smd rect (at 2.49 1.27) (size 2.54 0.508) (layers F.Cu F.Mask F.Paste))
  (pad 6 smd rect (at 2.49 2.54) (size 2.54 0.508) (layers F.Cu F.Mask F.Paste))
  (pad 8 smd rect (at 2.49 3.81) (size 2.54 0.508) (layers F.Cu F.Mask F.Paste))
  (pad 10 smd rect (at 2.49 5.08) (size 2.54 0.508) (layers F.Cu F.Mask F.Paste))
  (pad 12 smd rect (at 2.49 6.35) (size 2.54 0.508) (layers F.Cu F.Mask F.Paste))
  (pad 14 smd rect (at 2.49 7.62) (size 2.54 0.508) (layers F.Cu F.Mask F.Paste))
  (pad 16 smd rect (at 2.49 8.89) (size 2.54 0.508) (layers F.Cu F.Mask F.Paste))
  (pad 18 smd rect (at 2.49 10.16) (size 2.54 0.508) (layers F.Cu F.Mask F.Paste))
  (pad 20 smd rect (at 2.49 11.43) (size 2.54 0.508) (layers F.Cu F.Mask F.Paste))
  (fp_text user %R (at 0.635 5.715 90) (layer F.Fab)
    (effects (font (size 1 1) (thickness 0.15)))
  )
  (model ${KICAD6_3DMODEL_DIR}/Connector_IDC.3dshapes/IDC-Header_2x10_P1.27mm_Vertical_SMD.wrl
    (at (xyz 0 0 0))
    (scale (xyz 1 1 1))
    (rotate (xyz 0 0 0))
  )
)