(module IDC-Header_2x07_P1.27mm_Vertical_SMD (layer F.Cu) (tedit 6014190F)
  (descr "Surface mounted IDC box header, 2x07, 1.27mm pitch, double rows (")
  (tags "Surface mounted vertical IDC box header SMD 2x07 1.27mm double row")
  (fp_text reference REF** (at 1.27 -6.1) (layer F.SilkS)
    (effects (font (size 1 1) (thickness 0.15)))
  )
  (fp_text value IDC-Header_2x07_P1.27mm_Vertical_SMD (at 1.27 12.32) (layer F.Fab)
    (effects (font (size 1 1) (thickness 0.15)))
  )
  (fp_line (start -1.72 -2.7) (end -0.72 -3.7) (layer F.Fab) (width 0.1))
  (fp_line (start -0.72 -3.7) (end 2.99 -3.7) (layer F.Fab) (width 0.1))
  (fp_line (start 2.99 -3.7) (end 2.99 11.32) (layer F.Fab) (width 0.1))
  (fp_line (start 2.99 11.32) (end -1.72 11.32) (layer F.Fab) (width 0.1))
  (fp_line (start -1.72 11.32) (end -1.72 -2.7) (layer F.Fab) (width 0.1))
  (fp_line (start -1.72 1.76) (end -0.72 1.76) (layer F.Fab) (width 0.1))
  (fp_line (start -0.72 1.76) (end -0.72 -2.7) (layer F.Fab) (width 0.1))
  (fp_line (start -0.72 -2.7) (end 1.99 -2.7) (layer F.Fab) (width 0.1))
  (fp_line (start 1.99 -2.7) (end 1.99 10.32) (layer F.Fab) (width 0.1))
  (fp_line (start 1.99 10.32) (end -0.72 10.32) (layer F.Fab) (width 0.1))
  (fp_line (start -0.72 10.32) (end -0.72 5.86) (layer F.Fab) (width 0.1))
  (fp_line (start -0.72 5.86) (end -1.72 5.86) (layer F.Fab) (width 0.1))
  (fp_line (start -2.49 -0.504) (end -1.82 -0.504) (layer F.SilkS) (width 0.12))
  (fp_line (start -1.82 -0.504) (end -1.82 -3.8) (layer F.SilkS) (width 0.12))
  (fp_line (start -1.82 -3.8) (end 3.09 -3.8) (layer F.SilkS) (width 0.12))
  (fp_line (start 3.09 -3.8) (end 3.09 -0.504) (layer F.SilkS) (width 0.12))
  (fp_line (start -1.82 8.124) (end -1.82 11.42) (layer F.SilkS) (width 0.12))
  (fp_line (start -1.82 11.42) (end 3.09 11.42) (layer F.SilkS) (width 0.12))
  (fp_line (start 3.09 11.42) (end 3.09 8.124) (layer F.SilkS) (width 0.12))
  (fp_line (start -2.99 -4.2) (end -2.99 11.82) (layer F.CrtYd) (width 0.05))
  (fp_line (start -2.99 11.82) (end 4.26 11.82) (layer F.CrtYd) (width 0.05))
  (fp_line (start 4.26 11.82) (end 4.26 -4.2) (layer F.CrtYd) (width 0.05))
  (fp_line (start 4.26 -4.2) (end -2.99 -4.2) (layer F.CrtYd) (width 0.05))
  (pad 1 smd rect (at -1.22 0) (size 2.54 0.508) (layers F.Cu F.Mask F.Paste))
  (pad 3 smd rect (at -1.22 1.27) (size 2.54 0.508) (layers F.Cu F.Mask F.Paste))
  (pad 5 smd rect (at -1.22 2.54) (size 2.54 0.508) (layers F.Cu F.Mask F.Paste))
  (pad 7 smd rect (at -1.22 3.81) (size 2.54 0.508) (layers F.Cu F.Mask F.Paste))
  (pad 9 smd rect (at -1.22 5.08) (size 2.54 0.508) (layers F.Cu F.Mask F.Paste))
  (pad 11 smd rect (at -1.22 6.35) (size 2.54 0.508) (layers F.Cu F.Mask F.Paste))
  (pad 13 smd rect (at -1.22 7.62) (size 2.54 0.508) (layers F.Cu F.Mask F.Paste))
  (pad 2 smd rect (at 2.49 0) (size 2.54 0.508) (layers F.Cu F.Mask F.Paste))
  (pad 4 smd rect (at 2.49 1.27) (size 2.54 0.508) (layers F.Cu F.Mask F.Paste))
  (pad 6 smd rect (at 2.49 2.54) (size 2.54 0.508) (layers F.Cu F.Mask F.Paste))
  (pad 8 smd rect (at 2.49 3.81) (size 2.54 0.508) (layers F.Cu F.Mask F.Paste))
  (pad 10 smd rect (at 2.49 5.08) (size 2.54 0.508) (layers F.Cu F.Mask F.Paste))
  (pad 12 smd rect (at 2.49 6.35) (size 2.54 0.508) (layers F.Cu F.Mask F.Paste))
  (pad 14 smd rect (at 2.49 7.62) (size 2.54 0.508) (layers F.Cu F.Mask F.Paste))
  (fp_text user %R (at 0.635 3.81 90) (layer F.Fab)
    (effects (font (size 1 1) (thickness 0.15)))
  )
  (model ${KICAD6_3DMODEL_DIR}/Connector_IDC.3dshapes/IDC-Header_2x07_P1.27mm_Vertical_SMD.wrl
    (at (xyz 0 0 0))
    (scale (xyz 1 1 1))
    (rotate (xyz 0 0 0))
  )
)